%!PS-Adobe-3.0 EPSF-3.0
%%Creator: cairo 1.8.8 (http://cairographics.org)
%%CreationDate: Fri Mar 04 16:47:07 2011
%%Pages: 1
%%BoundingBox: 0 0 72 126
%%DocumentData: Clean7Bit
%%LanguageLevel: 2
%%EndComments
%%BeginProlog
/cairo_eps_state save def
/dict_count countdictstack def
/op_count count 1 sub def
userdict begin
/q { gsave } bind def
/Q { grestore } bind def
/cm { 6 array astore concat } bind def
/w { setlinewidth } bind def
/J { setlinecap } bind def
/j { setlinejoin } bind def
/M { setmiterlimit } bind def
/d { setdash } bind def
/m { moveto } bind def
/l { lineto } bind def
/c { curveto } bind def
/h { closepath } bind def
/re { exch dup neg 3 1 roll 5 3 roll moveto 0 rlineto
      0 exch rlineto 0 rlineto closepath } bind def
/S { stroke } bind def
/f { fill } bind def
/f* { eofill } bind def
/B { fill stroke } bind def
/B* { eofill stroke } bind def
/n { newpath } bind def
/W { clip } bind def
/W* { eoclip } bind def
/BT { } bind def
/ET { } bind def
/pdfmark where { pop globaldict /?pdfmark /exec load put }
    { globaldict begin /?pdfmark /pop load def /pdfmark
    /cleartomark load def end } ifelse
/BDC { mark 3 1 roll /BDC pdfmark } bind def
/EMC { mark /EMC pdfmark } bind def
/cairo_store_point { /cairo_point_y exch def /cairo_point_x exch def } def
/Tj { show currentpoint cairo_store_point } bind def
/TJ {
  {
    dup
    type /stringtype eq
    { show } { -0.001 mul 0 cairo_font_matrix dtransform rmoveto } ifelse
  } forall
  currentpoint cairo_store_point
} bind def
/cairo_selectfont { cairo_font_matrix aload pop pop pop 0 0 6 array astore
    cairo_font exch selectfont cairo_point_x cairo_point_y moveto } bind def
/Tf { pop /cairo_font exch def /cairo_font_matrix where
      { pop cairo_selectfont } if } bind def
/Td { matrix translate cairo_font_matrix matrix concatmatrix dup
      /cairo_font_matrix exch def dup 4 get exch 5 get cairo_store_point
      /cairo_font where { pop cairo_selectfont } if } bind def
/Tm { 2 copy 8 2 roll 6 array astore /cairo_font_matrix exch def
      cairo_store_point /cairo_font where { pop cairo_selectfont } if } bind def
/g { setgray } bind def
/rg { setrgbcolor } bind def
/d1 { setcachedevice } bind def
%%EndProlog
%%Page: 1 1
%%BeginPageSetup
%%PageBoundingBox: 0 0 72 126
%%EndPageSetup
q
0 g
0.753149 w
0 J
0 j
[] 0.0 d
4 M q -1 -0.474275 0.474275 -1 0 125.610031 cm
-40.291 55.886 m -17.448 55.885 l -17.45 67.346 l -40.293 67.348 l h
-40.291 55.886 m S Q
0.797716 w
q 1 -0.303133 -0.303133 -1 0 125.610031 cm
18.403 34.742 m 42.598 34.743 l 42.599 46.884 l 18.403 46.882 l h
18.403 34.742 m S Q
0.832785 w
q 0.0431788 -1 1 0.0431788 0 125.610031 cm
24.897 57.605 m 50.152 57.608 l 50.152 70.28 l 24.894 70.281 l h
24.897 57.605 m S Q
0.833277 w
q 0.0261159 -1 -1 -0.0261159 0 125.610031 cm
26.91 -12.411 m 52.183 -12.411 l 52.184 0.273 l 26.911 0.269 l h
26.91 -12.411 m S Q
0.761592 w
q 1 0 0 -1 0 125.610031 cm
22.434 36.969 29.535 54.781 re S Q
0.807081 w
q 1 0.149075 0.149075 -1 0 125.610031 cm
13.716 7.67 m 48.313 7.671 l 48.315 42.273 l 13.714 42.271 l h
13.716 7.67 m S Q
42.977 111.036 m 42.977 110.161 42.27 109.458 41.398 109.458 c 40.527 
109.458 39.82 110.161 39.82 111.036 c 39.82 111.907 40.527 112.614 
41.398 112.614 c 42.27 112.614 42.977 111.907 42.977 111.036 c h
42.977 111.036 m f
0.431202 w
q 1 0 0 -1 0 125.610031 cm
42.977 14.574 m 42.977 15.449 42.27 16.152 41.398 16.152 c 40.527 
16.152 39.82 15.449 39.82 14.574 c 39.82 13.703 40.527 12.996 41.398 
12.996 c 42.27 12.996 42.977 13.703 42.977 14.574 c h
42.977 14.574 m S Q
27.684 106.411 m 27.684 105.54 26.977 104.833 26.105 104.833 c 25.234 
104.833 24.527 105.54 24.527 106.411 c 24.527 107.282 25.234 107.989 
26.105 107.989 c 26.977 107.989 27.684 107.282 27.684 106.411 c h
27.684 106.411 m f
0.431202 w
q 1 0 0 -1 0 125.610031 cm
27.684 19.199 m 27.684 20.07 26.977 20.777 26.105 20.777 c 25.234 
20.777 24.527 20.07 24.527 19.199 c 24.527 18.328 25.234 17.621 26.105 
17.621 c 26.977 17.621 27.684 18.328 27.684 19.199 c h
27.684 19.199 m S Q
39.055 102.458 m 34.254 99.688 l 34.254 105.231 l h
39.055 102.458 m f
0.816 w
q 1 0 0 -1 0 125.610031 cm
39.055 23.152 m 34.254 25.922 l 34.254 20.379 l h
39.055 23.152 m S Q
0.833421 w
q 0.0183729 -1 1 0.0183729 0 125.610031 cm
82.86 20.646 m 108.137 20.642 l 108.136 33.326 l 82.858 33.325 l h
82.86 20.646 m S Q
0.833421 w
q 0.0183729 -1 1 0.0183729 0 125.610031 cm
100.29 20.681 m 125.567 20.681 l 125.566 33.361 l 100.289 33.361 l h
100.29 20.681 m S Q
0.833421 w
q 0.0183729 -1 1 0.0183729 0 125.610031 cm
83.193 38.78 m 108.47 38.781 l 108.469 51.46 l 83.192 51.46 l h
83.193 38.78 m S Q
0.833421 w
q 0.0183729 -1 1 0.0183729 0 125.610031 cm
100.623 38.815 m 125.901 38.816 l 125.899 51.495 l 100.622 51.499 l h
100.623 38.815 m S Q
0.8 w
q 1 0 0 -1 0 125.610031 cm
22.777 4.309 m 21.227 11.133 l 27.742 6.789 l 28.051 9.895 l 38.289 
2.137 l h
22.777 4.309 m S Q
Q
showpage
%%Trailer
count op_count sub {pop} repeat
countdictstack dict_count sub {end} repeat
cairo_eps_state restore
%%EOF
