^D:\HOME\DROPBOX\PROJECTS\VBALLPOOL-4K\VBALLPOOL_NORMAL\LIBS\FTGL_STATIC.LIB|D:\HOME\DROPBOX\PROJECTS\VBALLPOOL-4K\VBALLPOOL_NORMAL\LIBS\VRAGDOLL.LIB|D:\HOME\DROPBOX\PROJECTS\VBALLPOOL-4K\VBALLPOOL_NORMAL\RELEASE\GAME.OBJ|D:\HOME\DROPBOX\PROJECTS\VBALLPOOL-4K\VBALLPOOL_NORMAL\RELEASE\MAIN.OBJ|D:\HOME\DROPBOX\PROJECTS\VBALLPOOL-4K\VBALLPOOL_NORMAL\RELEASE\RENDER.OBJ|D:\HOME\DROPBOX\PROJECTS\VBALLPOOL-4K\VBALLPOOL_NORMAL\RELEASE\SCENEDRAWER.OBJ|D:\HOME\DROPBOX\PROJECTS\VBALLPOOL-4K\VBALLPOOL_NORMAL\RELEASE\VBALLPOOL.OBJ|D:\HOME\DROPBOX\PROJECTS\VBALLPOOL-4K\VBALLPOOL_NORMAL\RELEASE\VBSOUND.OBJ
D:\HOME\DROPBOX\PROJECTS\VBALLPOOL-4K\VBALLPOOL_NORMAL\RELEASE\VBALLPOOL.EXE
D:\HOME\DROPBOX\PROJECTS\VBALLPOOL-4K\VBALLPOOL_NORMAL\RELEASE\VBALLPOOL.EXE.INTERMEDIATE.MANIFEST
D:\HOME\DROPBOX\PROJECTS\VBALLPOOL-4K\VBALLPOOL_NORMAL\RELEASE\VBALLPOOL.PDB
